import ch.axonivy.fintech.standard.guiframework.BaseMetaDto;
import ch.ivyteam.ivy.environment.Ivy;
import java.util.Date;

rule "[hellorule:LeaveRequest] Personal ID is disable when age is less than 18"
when
	$age: BaseMetaDto(propertyName == "TypeBasedRules.LeaveRequest.age", viewValue < 18)
	$personalId: BaseMetaDto(propertyName == "TypeBasedRules.LeaveRequest.personalId")
then
	$personalId.setReadonly(true);
end	

rule "[hellorule:LeaveRequest] Personal ID is enable when age is bigger than 18"
when
	$age: BaseMetaDto(propertyName == "TypeBasedRules.LeaveRequest.age", viewValue >= 18)
	$personalId: BaseMetaDto(propertyName == "TypeBasedRules.LeaveRequest.personalId")
then
	$personalId.setReadonly(false);
end	

// Override data type
rule "[hellorule:LeaveRequest] Begin day cannot later than Ending day"
when
	$beginDay: BaseMetaDto(propertyName == "TypeBasedRules.LeaveRequest.beginDay", viewValue != null && viewValue != "", $beginDayViewValue:viewValue#Date)
	$endDay: BaseMetaDto(propertyName == "TypeBasedRules.LeaveRequest.endDay", viewValue != null && viewValue != "", $beginDayViewValue > viewValue#Date)
then
	$beginDay.setValid(false);
	$beginDay.setMessage("This is wrong");
	$endDay.setValid(false);
	$endDay.setMessage("This is wrong");
end	

rule "[hellorule:LeaveRequest] Begin day is sooner Ending day"
when
	$beginDay: BaseMetaDto(propertyName == "TypeBasedRules.LeaveRequest.beginDay", viewValue != null && viewValue != "", $beginDayViewValue:viewValue#Date)
	$endDay: BaseMetaDto(propertyName == "TypeBasedRules.LeaveRequest.endDay", viewValue != null && viewValue != "", $beginDayViewValue <= viewValue#Date)
then
	$beginDay.setValid(true);
	$beginDay.setMessage("");
	$endDay.setValid(true);
	$endDay.setMessage("");
end	
