import ch.axonivy.fintech.standard.guiframework.BaseMetaDto;

rule "[hellorule:LeaveRequest] Contexted Based Rule another rule"
when
	$submit: BaseMetaDto(propertyName == "ContextBasedRules.lr.age")
then
	$submit.setRendered(false);;
end	